{
    "Binder": {
        "schema": "example_2",
        "database": "",
        "port": "5432",
        "vendor": "POSTGRESQL",
        "host": "localhost",
        "encoding": "UTF-8",
        "user": ""
    },
    "MergeStrategy":
    {
        "firstOrderMergers":
        {
            "author":
            {
                "mergerType": "SortSelect",
                "SortKey": ["author_id"],
                "Selector": "FIRST"
            },
            "authorship":
            {
                "mergerType": "Hierarchical",
                "NestedMergers": {
                    "authorship_id": {
                        "mergerType": "Select",
                        "Selector": "LAST"
                    }
                }
            }
        },
        "secondOrderMergers":
        {
            "authorship":
            {
                "mergerType": "Union",
                "foreignKeyProjection": true,
                "pushParentMerges": false
            }
        }
        
    }
}