{
    "Binder": {
        "schema": "example_1",
        "database": "",
        "port": "5432",
        "vendor": "POSTGRESQL",
        "host": "localhost",
        "encoding": "UTF-8",
        "user": ""
    },
    "MergeStrategy": {
        "firstOrderMergers":
        {
            "person":
            {
                "mergerType": "Hierarchical",
                "NestedMergers":
                {
                    "person_id":
                    {
                        "mergerType": "Select",
                        "Selector": "FIRST"
                    },
                    "name":
                    {
                        "mergerType": "Majority"
                    }
                }
            }
        },
        "secondOrderMergers":
        {
            "hobbies": {"mergerType": "Optimal"}
        },
    }
}
